{
  "/api/Account/Login": {
    "target":  {
      "host": "vessel5api-dev.ap-southeast-2.elasticbeanstalk.com",
      "protocol": "http:",
      "port": 80
    },
    "secure": false,
    "changeOrigin": true,
    "logLevel": "info",
    "headers":{ "Content-Type":"application/json", "x-api-key":"JnzET9dsKi6RIyD5t13WziLRRpadrbj5QXG1Fuj4"} 
  },
  "/api": {
       "target":  {
         "host": "3qy4gog8n8.execute-api.ap-southeast-2.amazonaws.com",
         "protocol": "https:",
         "port": 443
       },
       "secure": false,
       "changeOrigin": true,
       "logLevel": "info",
       "headers":{ "Content-Type":"application/json", "x-api-key":"JnzET9dsKi6RIyD5t13WziLRRpadrbj5QXG1Fuj4"} 
    }
}